<?xml version="1.0" encoding="utf-8"?>
<!-- Generator: Adobe Illustrator 18.0.0, SVG Export Plug-In . SVG Version: 6.00 Build 0)  -->
<!DOCTYPE svg PUBLIC "-//W3C//DTD SVG 1.1//EN" "http://www.w3.org/Graphics/SVG/1.1/DTD/svg11.dtd">
<svg version="1.1" id="Layer_1" xmlns="http://www.w3.org/2000/svg" xmlns:xlink="http://www.w3.org/1999/xlink" x="0px" y="0px"
	 viewBox="0 0 727.2 166.2" enable-background="new 0 0 727.2 166.2" xml:space="preserve">
<g>
	<g>
		<path fill="#F2F2F3" d="M278.7,82.4c0-11.5,2.9-22.5,8.1-32.3C135.9,57.5,3.5,79.8,3.5,79.8L18.9,148
			c39.5-6,149.8-21.6,271.3-27.4C282.9,109.4,278.7,96.3,278.7,82.4z"/>
		<path fill="#F2F2F3" d="M445,49.1c5.5,10.1,8.6,21.4,8.6,33.3c0,13.5-4,26.2-11,37.3c123.6,4.9,227.8,22.1,265.6,29.1L723.5,81
			C723.5,81,599.8,55.4,445,49.1z"/>
	</g>
	<path fill="#F57F29" d="M448.3,82.4c0,39.8-36.8,72.1-82.2,72.1s-82.2-32.3-82.2-72.1c0-39.8,36.8-72.1,82.2-72.1
		S448.3,42.6,448.3,82.4L448.3,82.4z"/>
	<path fill="#FFFFFF" d="M39.3,112.2l-1.6-9.1c-0.2-1.2-0.5-2.1-0.8-2.7c-0.3-0.7-0.8-1.2-1.3-1.4c-0.4-0.2-0.7-0.3-1.1-0.4
		c-0.4-0.1-0.9-0.1-1.4,0l0,0c-0.7,0-1.1-0.1-1.1-0.5c0-0.3,0-0.5,0.1-0.6c0.1-0.1,0.3-0.2,0.6-0.3c0.1,0,0.3,0,0.5-0.1
		c0.2,0,0.4,0,0.7-0.1c0.4,0,0.6,0,0.8,0c0.2,0,0.4,0,0.6-0.1c0.3,0,0.5-0.1,0.8-0.2c0.3-0.1,0.7-0.2,1.1-0.3
		c0.5-0.1,0.8-0.2,1.1-0.3c0.2-0.1,0.5-0.1,0.7-0.1c0.8-0.1,1.7,0.2,2.8,0.9c0.1,0.1,0.1,0.1,0.2,0.1l17.7,12.2
		c0.4,0.3,0.8,0.5,1.2,0.7c0.3,0.2,0.6,0.2,0.8,0.2c0.2,0,0.3-0.2,0.4-0.5c0-0.3,0-0.7-0.1-1.4L60.1,99c-0.2-1.4-0.6-2.4-0.9-3
		c-0.4-0.6-0.9-1-1.6-1.2c-0.7-0.2-1.6-0.3-2.6-0.3c-1,0-1.5-0.1-1.6-0.5c0-0.2,0-0.4,0.2-0.5c0.1-0.1,0.4-0.2,0.7-0.3
		c0.2,0,0.5-0.1,0.8-0.1c0.3,0,0.6,0,0.9,0c0.4,0,0.8-0.1,1.2-0.1c0.4-0.1,0.9-0.1,1.4-0.2c0.5-0.1,1.1-0.2,1.6-0.3
		c0.6-0.1,1.2-0.3,2-0.5c0.3-0.1,0.6-0.2,0.9-0.3c0.3-0.1,0.6-0.1,0.8-0.2c0.3-0.1,0.6,0,0.7,0c0.1,0.1,0.2,0.2,0.3,0.5
		c0.1,0.3-0.2,0.7-0.7,0.9c-0.6,0.3-1,0.6-1.2,0.8c-0.5,0.4-0.8,0.9-0.9,1.5C62,95.7,62,96.6,62.3,98l3,18.4
		c0.1,0.5,0.1,0.9,0.1,1.2c0,0.3-0.2,0.4-0.4,0.4c-0.5,0.1-1.2-0.2-2.3-0.9c-0.2-0.1-0.4-0.3-0.5-0.3l-21.1-14.3
		c-0.2-0.2-0.5-0.3-0.7-0.4c-0.2-0.1-0.4-0.1-0.5-0.1c-0.2,0-0.3,0.2-0.3,0.4c0,0.3,0,0.7,0.1,1.2l1.5,8.4c0.5,2.6,0.9,4.4,1.3,5.2
		c0.4,0.9,0.9,1.5,1.5,1.8c0.5,0.3,1.2,0.4,2.3,0.3l0,0c0.7,0,1.1,0,1.4,0.1c0.2,0.1,0.4,0.3,0.4,0.5c0.1,0.3,0,0.5-0.1,0.7
		c-0.1,0.1-0.4,0.2-0.9,0.3c-0.1,0-0.6,0.1-1.7,0.1c-1,0.1-2,0.2-2.9,0.3c-1,0.2-2,0.4-3.1,0.7c-1.1,0.3-1.7,0.5-1.8,0.5
		c-0.3,0-0.5,0-0.7-0.1c-0.2-0.1-0.3-0.3-0.3-0.6c-0.1-0.3,0.2-0.6,0.9-0.9l0,0c0,0,0.1,0,0.1-0.1c0.8-0.4,1.3-0.8,1.5-1.1
		c0.4-0.5,0.5-1.4,0.5-2.7C39.8,115.8,39.6,114.2,39.3,112.2L39.3,112.2z"/>
	<path fill="#FFFFFF" d="M82.1,109.6l8.3-22.1l0,0c0.1-0.3,0.3-0.5,0.6-0.6c0.2,0,0.3,0,0.5,0.1c0.2,0.1,0.3,0.2,0.4,0.4l14.1,20.1
		c0.5,0.6,0.9,1.1,1.3,1.4c0.4,0.3,1,0.5,1.6,0.6c0.1,0,0.3,0,0.5,0.1c0.1,0,0.1,0,0.1,0l0,0c0.7,0.1,1,0.3,1.1,0.7
		c0,0.3,0,0.5-0.1,0.6c-0.1,0.1-0.3,0.2-0.6,0.2c-0.2,0-1,0.1-2.4,0.2c-1.4,0.1-2.7,0.2-3.8,0.3c-1.6,0.2-3.3,0.6-4.9,1
		c-0.3,0.1-0.5,0.1-0.6,0.1c-0.2,0-0.4,0-0.5-0.1c-0.2-0.1-0.2-0.3-0.3-0.5c0-0.2,0.3-0.5,0.9-0.9c0.1,0,0.1-0.1,0.1-0.1
		c0.8-0.4,1.3-0.7,1.5-1.1c0.2-0.4,0.3-0.8,0.3-1.2c0-0.2-0.1-0.5-0.2-0.8c-0.1-0.3-0.3-0.5-0.4-0.8l-1.6-2.3
		c-0.4-0.6-0.8-1-1.1-1.1c-0.4-0.2-1.1-0.2-2.1,0l-0.5,0.1l-5.7,0.8c-1.3,0.2-2.1,0.4-2.4,0.6c-0.3,0.3-0.6,0.7-0.8,1.4l-0.8,2.9
		c-0.1,0.3-0.1,0.5-0.2,0.7c0,0.2,0,0.4,0,0.6c0.1,0.5,0.4,0.9,0.9,1.2c0.5,0.3,1.3,0.4,2.4,0.4c0,0,0,0,0.1,0c0,0,0.1,0,0.2,0
		c0.7,0,1.1,0.1,1.3,0.2c0.2,0.1,0.3,0.2,0.3,0.4c0,0.3,0,0.5-0.2,0.6c-0.2,0.1-0.4,0.2-0.7,0.3c-0.1,0-0.9,0.1-2.1,0.1
		c-1.3,0-2.5,0.1-3.6,0.3c-0.8,0.1-1.7,0.3-2.5,0.5c-0.8,0.2-1.2,0.3-1.3,0.3c-0.3,0-0.6,0-0.7-0.1c-0.2-0.1-0.3-0.3-0.3-0.5
		c0-0.3,0.2-0.6,0.9-0.9c0.4-0.2,0.6-0.3,0.8-0.5c0.4-0.3,0.8-0.7,1.1-1.2C81.3,111.6,81.7,110.8,82.1,109.6L82.1,109.6z
		 M89.2,102.9l5.1-0.7c0.5-0.1,0.8-0.1,1-0.3c0.2-0.1,0.3-0.2,0.3-0.4c0-0.1-0.1-0.2-0.2-0.4c-0.1-0.2-0.2-0.4-0.4-0.6l-4-5.7
		c-0.1-0.2-0.3-0.4-0.4-0.5c-0.1-0.1-0.2-0.1-0.3-0.1c-0.1,0-0.2,0.1-0.3,0.2c-0.1,0.1-0.2,0.3-0.2,0.4l-2.4,6.9
		c-0.1,0.2-0.1,0.4-0.1,0.6c0,0.2,0,0.3,0,0.4c0,0.2,0.2,0.3,0.4,0.4C87.8,103,88.4,103,89.2,102.9L89.2,102.9z"/>
	<path fill="#FFFFFF" d="M121.7,107.6l-2-5.1c-0.1-0.1-0.1-0.3-0.2-0.4c0-0.1-0.1-0.2-0.1-0.2c0-0.3,0-0.6,0.1-0.7
		c0.1-0.1,0.3-0.2,0.7-0.3c0.3,0,0.7,0.3,1.1,1.1c0.4,0.8,0.9,1.5,1.4,2.1c1.1,1.2,2.3,2.2,3.7,2.8c1.4,0.6,2.8,0.9,4.2,0.7
		c1.8-0.2,3.2-0.8,4.2-1.8c1-1,1.5-2.2,1.3-3.7c-0.2-1.8-2.6-3.3-7.1-4.3c-0.3-0.1-0.6-0.1-0.7-0.2c0,0,0,0,0,0
		c-6-1.4-9.1-3.7-9.5-6.8c-0.2-2,0.4-3.7,1.9-5.2c1.5-1.5,3.5-2.4,6-2.7c1.3-0.1,2.6-0.1,4,0.2c1.4,0.3,2.3,0.4,2.7,0.3
		c0.4,0,0.8-0.2,1.1-0.4c0.3-0.2,0.6-0.3,0.7-0.3c0.3,0,0.5,0,0.6,0.1c0.1,0.1,0.2,0.3,0.3,0.6c0,0.1,0,0.3,0,0.6c0,0.3,0,0.5,0,0.7
		c0.1,0.6,0.3,1.4,0.6,2.5c0.3,1.1,0.5,1.8,0.5,2.2c0,0.3,0,0.5-0.1,0.6c-0.1,0.1-0.3,0.2-0.5,0.2c-0.4,0-0.8-0.3-1.2-1.1
		c-0.4-0.8-0.8-1.5-1.4-2.1c-0.9-0.9-2-1.6-3.3-2.1c-1.4-0.5-2.7-0.6-4.1-0.5c-1.4,0.2-2.6,0.6-3.4,1.4c-0.8,0.8-1.2,1.7-1.1,2.7
		c0.1,1,0.6,1.8,1.6,2.4c1,0.6,2.7,1.1,5.1,1.6c0.3,0.1,0.7,0.1,1.2,0.2c3,0.6,5,1.2,6,1.9c0.9,0.6,1.7,1.3,2.2,2.3
		c0.6,0.9,0.9,1.9,1,3.1c0.3,2.4-0.4,4.5-2,6.2c-1.6,1.7-3.9,2.7-6.7,3c-1.2,0.1-2.5,0.1-4.1-0.2c-1.5-0.2-2.5-0.4-2.8-0.4
		c-0.1,0-0.1,0-0.2,0c-0.1,0-0.2,0-0.2,0c-0.8,0-1.3-0.3-1.5-1C121.7,107.7,121.7,107.7,121.7,107.6
		C121.7,107.7,121.7,107.7,121.7,107.6L121.7,107.6z"/>
	<path fill="#FFFFFF" d="M153.1,104.4l-1.9-5.2c-0.1-0.1-0.1-0.3-0.2-0.4c0-0.1-0.1-0.2-0.1-0.2c0-0.3,0-0.6,0.1-0.7
		c0.1-0.1,0.3-0.2,0.7-0.2c0.3,0,0.7,0.3,1.1,1.1c0.4,0.8,0.9,1.5,1.4,2.1c1,1.3,2.3,2.2,3.7,2.9c1.4,0.7,2.8,0.9,4.2,0.8
		c1.8-0.2,3.2-0.7,4.2-1.7c1.1-1,1.5-2.2,1.4-3.7c-0.2-1.8-2.5-3.3-7-4.5c-0.3-0.1-0.6-0.1-0.7-0.2c0,0,0,0,0,0
		c-6-1.5-9.1-3.9-9.3-7c-0.2-2,0.5-3.7,2-5.2c1.5-1.5,3.5-2.3,6-2.6c1.3-0.1,2.6,0,4,0.3c1.4,0.3,2.3,0.4,2.7,0.4
		c0.4,0,0.8-0.2,1.2-0.3c0.4-0.2,0.6-0.3,0.7-0.3c0.3,0,0.5,0,0.6,0.1c0.1,0.1,0.2,0.3,0.2,0.6c0,0.1,0,0.3,0,0.6c0,0.3,0,0.5,0,0.7
		c0.1,0.6,0.2,1.4,0.5,2.5c0.3,1.1,0.5,1.8,0.5,2.2c0,0.3,0,0.5-0.1,0.6c-0.1,0.1-0.3,0.2-0.5,0.2c-0.4,0-0.8-0.3-1.2-1.1
		c-0.3-0.8-0.8-1.5-1.4-2.2c-0.9-1-2-1.7-3.3-2.2c-1.3-0.5-2.7-0.7-4.1-0.6c-1.4,0.1-2.6,0.6-3.4,1.3c-0.9,0.8-1.2,1.7-1.2,2.7
		c0.1,1,0.6,1.8,1.5,2.4c0.9,0.6,2.6,1.2,5.1,1.7c0.3,0.1,0.7,0.2,1.2,0.3c3,0.7,5,1.3,5.9,2c0.9,0.6,1.7,1.4,2.2,2.3
		c0.5,0.9,0.9,2,1,3.1c0.2,2.5-0.5,4.5-2.2,6.2c-1.7,1.7-3.9,2.6-6.8,2.9c-1.2,0.1-2.5,0-4.1-0.2c-1.5-0.3-2.5-0.4-2.8-0.4
		c-0.1,0-0.1,0-0.2,0c-0.1,0-0.2,0-0.2,0c-0.8,0-1.3-0.3-1.5-1C153.1,104.5,153.1,104.5,153.1,104.4
		C153.1,104.5,153.1,104.4,153.1,104.4L153.1,104.4z"/>
	<path fill="#FFFFFF" d="M186,98.6l9.8-21.4l0,0c0.2-0.3,0.4-0.5,0.7-0.5c0.2,0,0.3,0,0.5,0.1c0.2,0.1,0.3,0.3,0.4,0.4l12.7,21
		c0.4,0.7,0.8,1.2,1.2,1.5c0.4,0.3,0.9,0.5,1.6,0.7c0.1,0,0.3,0.1,0.5,0.1c0.1,0,0.1,0,0.1,0l0,0c0.7,0.1,1,0.4,1.1,0.8
		c0,0.3,0,0.5-0.1,0.6c-0.1,0.1-0.3,0.2-0.7,0.2c-0.2,0-1,0-2.4,0c-1.4,0-2.7,0-3.8,0.1c-1.6,0.1-3.3,0.3-5,0.7
		c-0.3,0.1-0.6,0.1-0.6,0.1c-0.2,0-0.4,0-0.5-0.2c-0.1-0.1-0.2-0.3-0.2-0.6c0-0.2,0.3-0.5,0.9-0.8c0.1,0,0.1,0,0.1-0.1
		c0.8-0.3,1.3-0.6,1.6-1c0.3-0.3,0.4-0.7,0.4-1.2c0-0.2-0.1-0.5-0.2-0.8c-0.1-0.3-0.2-0.5-0.4-0.8l-1.4-2.4c-0.4-0.6-0.7-1-1.1-1.2
		c-0.4-0.2-1-0.2-2.1-0.2l-0.5,0l-5.8,0.4c-1.3,0.1-2.1,0.2-2.4,0.5c-0.4,0.2-0.7,0.7-0.9,1.3l-1,2.9c-0.1,0.3-0.2,0.5-0.2,0.7
		c0,0.2-0.1,0.4-0.1,0.6c0,0.5,0.3,1,0.8,1.3c0.5,0.3,1.3,0.5,2.3,0.6c0,0,0,0,0.1,0c0,0,0.1,0,0.2,0c0.7,0.1,1.1,0.1,1.3,0.3
		c0.2,0.1,0.3,0.3,0.3,0.5c0,0.3-0.1,0.5-0.2,0.6c-0.2,0.1-0.4,0.2-0.7,0.2c-0.1,0-0.9,0-2.1,0c-1.3,0-2.5,0-3.6,0
		c-0.8,0.1-1.7,0.2-2.5,0.3c-0.8,0.2-1.3,0.3-1.3,0.3c-0.3,0-0.6,0-0.7-0.1c-0.2-0.1-0.3-0.3-0.3-0.5c0-0.3,0.3-0.6,0.9-0.9
		c0.4-0.1,0.7-0.3,0.9-0.4c0.5-0.3,0.9-0.7,1.2-1.2C185.1,100.5,185.5,99.7,186,98.6L186,98.6z M193.5,92.3l5.1-0.3
		c0.5,0,0.8-0.1,1-0.2c0.2-0.1,0.3-0.2,0.3-0.4c0-0.1-0.1-0.2-0.1-0.4c-0.1-0.2-0.2-0.4-0.3-0.7l-3.6-6c-0.1-0.2-0.2-0.4-0.4-0.5
		c-0.1-0.1-0.2-0.2-0.3-0.2c-0.1,0-0.2,0.1-0.4,0.2c-0.1,0.1-0.2,0.2-0.3,0.4l-2.9,6.7c-0.1,0.2-0.1,0.4-0.2,0.5
		c0,0.2-0.1,0.3-0.1,0.4c0,0.2,0.2,0.4,0.4,0.4C192.2,92.4,192.7,92.4,193.5,92.3L193.5,92.3z"/>
	<path fill="#FFFFFF" d="M225.3,80.5c0-1.1-0.2-1.8-0.5-2.2c-0.3-0.4-0.8-0.7-1.6-0.9c-0.4-0.1-0.8-0.2-1.4-0.3c0,0-0.1,0-0.1,0
		c-0.5,0-0.9-0.1-1-0.2c-0.1-0.1-0.2-0.3-0.2-0.5c0-0.2,0.1-0.4,0.2-0.5c0.2-0.1,0.5-0.2,0.9-0.2c0.2,0,0.9,0,2,0c1.1,0,2.2,0,3.1,0
		c1.3-0.1,2.6-0.2,3.9-0.4c1.3-0.2,2.1-0.3,2.2-0.3c0.4,0,0.7,0,0.9,0.1c0.2,0.1,0.3,0.3,0.3,0.5c0,0.3-0.3,0.6-1,0.8l0,0
		c-0.2,0.1-0.4,0.1-0.6,0.2c-0.2,0.1-0.3,0.2-0.5,0.2c-0.5,0.3-0.9,0.8-1,1.5c-0.2,0.7-0.2,2.2-0.1,4.6l0.3,6.4
		c0.1,1.9,0.2,3.4,0.5,4.2c0.2,0.9,0.6,1.6,1,2.3c0.8,1.1,1.8,1.8,3.1,2.4c1.3,0.5,2.7,0.8,4.2,0.7c1.5-0.1,2.8-0.3,4-0.8
		c1.2-0.5,2.2-1.1,3-2c0.8-0.9,1.4-2,1.7-3.2c0.3-1.3,0.4-3.1,0.3-5.5l-0.3-6.3c-0.1-1.6-0.3-2.7-0.6-3.3c-0.3-0.6-0.9-1.1-1.6-1.3
		c-0.4-0.1-1-0.2-1.8-0.3c-1.1-0.1-1.6-0.4-1.6-0.8c0-0.2,0.1-0.4,0.2-0.5c0.2-0.1,0.5-0.2,0.9-0.2c0.2,0,0.6,0,1.1,0
		c0.1,0,0.2,0,0.3,0c0.1,0,0.3,0,0.6,0c1.1,0.1,1.9,0.1,2.6,0c0.5,0,0.9-0.1,1.4-0.1c0.5-0.1,1-0.1,1.7-0.3c0.1,0,0.1,0,0.3,0
		c0.4-0.1,0.6-0.1,0.8-0.1c0.3,0,0.6,0,0.7,0.1c0.2,0.1,0.2,0.2,0.2,0.4c0,0.3-0.3,0.6-0.9,0.8c-0.1,0-0.1,0-0.1,0
		c-0.3,0.1-0.5,0.1-0.7,0.2c-0.2,0.1-0.3,0.2-0.5,0.3c-0.4,0.2-0.6,0.7-0.7,1.5c-0.1,0.7-0.1,2.5,0,5.2l0.2,4.7
		c0.2,4.4-0.8,7.8-2.9,10.1c-2.1,2.3-5.5,3.6-9.9,3.8c-4.2,0.2-7.3-0.6-9.2-2.5c-2-1.8-3-5-3.2-9.4L225.3,80.5L225.3,80.5z"/>
	<path fill="#FFFFFF" d="M480.8,96.2l-1-5.4c0-0.1-0.1-0.3-0.1-0.4c0-0.1,0-0.2,0-0.2c0-0.3,0.1-0.6,0.2-0.7
		c0.1-0.1,0.4-0.2,0.7-0.1c0.3,0,0.6,0.5,0.9,1.3c0.3,0.8,0.6,1.6,1,2.3c0.8,1.4,1.9,2.6,3.2,3.4c1.3,0.9,2.6,1.3,4,1.4
		c1.8,0.1,3.3-0.2,4.5-1c1.2-0.8,1.9-1.9,2-3.4c0.1-1.8-1.9-3.7-6.2-5.5c-0.3-0.1-0.5-0.2-0.7-0.3c0,0,0,0,0,0
		c-5.6-2.5-8.3-5.3-8.1-8.4c0.1-2,1.1-3.6,2.8-4.8c1.7-1.2,3.9-1.8,6.4-1.6c1.3,0.1,2.6,0.4,3.9,0.9c1.4,0.5,2.2,0.8,2.6,0.8
		c0.4,0,0.8,0,1.2-0.2c0.4-0.1,0.6-0.2,0.7-0.2c0.3,0,0.5,0.1,0.6,0.2c0.1,0.1,0.2,0.3,0.1,0.6c0,0.1,0,0.3-0.1,0.6
		c0,0.3-0.1,0.5-0.1,0.7c0,0.6,0,1.4,0.1,2.5c0.1,1.1,0.2,1.8,0.2,2.2c0,0.3-0.1,0.5-0.2,0.6c-0.1,0.1-0.3,0.1-0.5,0.1
		c-0.4,0-0.8-0.5-1-1.3c-0.2-0.8-0.6-1.6-1-2.3c-0.7-1.1-1.7-2-2.9-2.7c-1.2-0.7-2.6-1.1-4-1.2c-1.4-0.1-2.6,0.2-3.6,0.8
		c-1,0.6-1.5,1.4-1.6,2.5c-0.1,1,0.3,1.9,1.1,2.6c0.8,0.8,2.4,1.6,4.7,2.5c0.3,0.1,0.6,0.3,1.2,0.5c2.8,1.1,4.7,2.1,5.6,2.9
		c0.8,0.7,1.4,1.6,1.8,2.6c0.4,1,0.5,2.1,0.5,3.2c-0.2,2.5-1.2,4.4-3.1,5.8c-1.9,1.4-4.3,2-7.2,1.8c-1.2-0.1-2.5-0.4-4-0.9
		c-1.5-0.5-2.4-0.8-2.7-0.9c-0.1,0-0.1,0-0.2-0.1c-0.1,0-0.2,0-0.2-0.1c-0.7-0.1-1.2-0.5-1.3-1.3C480.8,96.3,480.8,96.3,480.8,96.2
		C480.8,96.3,480.8,96.3,480.8,96.2L480.8,96.2z"/>
	<path fill="#FFFFFF" d="M523.1,79.4c0.1-0.8-0.1-1.2-0.3-1.5c-0.3-0.2-1.1-0.4-2.4-0.5c-2.2-0.2-3.8-0.2-4.7,0
		c-0.9,0.2-1.6,0.7-2,1.4c-0.3,0.5-0.6,1-0.9,1.7c-0.3,0.8-0.8,1.2-1.3,1.1c-0.2,0-0.4-0.1-0.5-0.2c-0.1-0.1-0.1-0.3-0.1-0.6
		c0-0.1,0.1-0.3,0.2-0.7c0.4-1.4,0.7-2.8,1-4.1c0.1-0.7,0.3-1.1,0.4-1.2c0.2-0.1,0.5-0.2,1-0.2c0.2,0,1.1,0.1,2.7,0.4
		c1.6,0.2,3.1,0.4,4.5,0.5l10.4,0.9c1.5,0.1,3.1,0.2,4.8,0.3c1.7,0.1,2.7,0.1,3,0.1c0.7,0.1,1.2,0.2,1.3,0.3
		c0.2,0.2,0.2,0.4,0.3,0.9l0,3.8l0,0.3c0,0.4-0.1,0.6-0.2,0.7c-0.1,0.1-0.3,0.1-0.5,0.1c-0.5,0-0.8-0.4-1-1
		c-0.1-0.5-0.3-0.9-0.4-1.2c-0.3-0.7-0.9-1.2-1.7-1.5c-0.8-0.3-2.2-0.6-4.2-0.7l-0.4,0c-1.6-0.1-2.6-0.1-2.9,0.1
		c-0.3,0.2-0.5,0.7-0.6,1.4l-1.4,16.4c-0.1,1,0,1.8,0.4,2.4c0.3,0.6,0.9,1.1,1.7,1.5c0.3,0.1,0.7,0.2,1.2,0.4c0,0,0.1,0,0.1,0
		c0,0,0,0,0.1,0c0.9,0.3,1.4,0.6,1.4,1c0,0.3-0.1,0.4-0.3,0.6c-0.2,0.1-0.5,0.1-0.9,0.1c-0.2,0-1-0.1-2.4-0.4
		c-1.4-0.2-2.7-0.4-3.8-0.5c-1.2-0.1-2.6-0.2-4.2-0.2c-1.6,0-2.6,0-2.9-0.1c-0.4,0-0.7-0.1-0.9-0.3c-0.2-0.2-0.3-0.4-0.3-0.6
		c0-0.4,0.5-0.6,1.4-0.7l0,0c0.1,0,0.3,0,0.6-0.1c0.3,0,0.5-0.1,0.7-0.1c0.9-0.2,1.5-0.6,1.9-1.1c0.4-0.5,0.7-1.3,0.8-2.3
		L523.1,79.4L523.1,79.4z"/>
	<path fill="#FFFFFF" d="M553.6,84.4c0.1-1.2,0.1-2.1,0-2.6c-0.1-0.5-0.4-0.9-0.7-1.3c-0.4-0.4-1-0.7-2-0.9c0,0-0.1,0-0.1,0
		c0,0,0,0,0,0c-0.8-0.2-1.2-0.5-1.2-0.9c0-0.2,0.1-0.4,0.3-0.5c0.2-0.1,0.5-0.1,0.8-0.1c0.1,0,0.4,0.1,0.8,0.1
		c1.7,0.3,3.4,0.5,4.9,0.7c0.8,0.1,2,0.1,3.9,0.2c1.8,0.1,3.2,0.1,4.3,0.3c3.3,0.3,5.8,1.2,7.4,2.5c1.7,1.4,2.4,3.1,2.2,5.3
		c-0.1,1.5-0.7,2.6-1.8,3.5c-1,0.9-2.5,1.5-4.5,1.8c0.2,0.1,0.5,0.3,0.7,0.6c0.2,0.2,0.4,0.6,0.7,1.1l3.8,7.3c0.6,1,1,1.7,1.4,2.1
		c0.4,0.4,0.9,0.6,1.5,0.6c0.2,0,0.4,0,0.6,0c0.3,0,0.4,0,0.5,0c0.2,0,0.4,0.1,0.5,0.2c0.1,0.1,0.1,0.2,0.1,0.4
		c0,0.4-0.6,0.8-1.6,1.1c-1,0.3-2.1,0.4-3.3,0.3c-1.3-0.1-2.5-0.7-3.5-1.8c-1-1.1-2.1-2.9-3.3-5.4c0-0.1-0.1-0.3-0.2-0.5
		c-1.3-2.9-2.2-4.5-2.6-4.9c-0.3-0.3-0.6-0.5-1-0.6c-0.4-0.1-1.1-0.3-2.1-0.4c-0.7-0.1-1.2,0-1.5,0.1c-0.3,0.2-0.4,0.5-0.5,1
		l-0.5,5.4c-0.1,1,0,1.8,0.2,2.4c0.3,0.6,0.7,1.1,1.3,1.5c0.2,0.1,0.5,0.2,0.9,0.4c0.1,0,0.1,0,0.1,0c0,0,0,0,0,0
		c0.8,0.2,1.2,0.6,1.2,1c0,0.3-0.1,0.5-0.3,0.6c-0.2,0.1-0.4,0.1-0.8,0.1c-0.1,0-0.8-0.1-1.9-0.4c-1.2-0.2-2.3-0.4-3.3-0.5
		c-1.1-0.1-2.4-0.2-3.8-0.2c-1.4,0-2.1,0-2.3-0.1c-0.3,0-0.6-0.1-0.8-0.2c-0.2-0.1-0.3-0.3-0.2-0.5c0-0.2,0.1-0.4,0.3-0.6
		c0.2-0.1,0.5-0.3,1-0.4c0.1,0,0.2-0.1,0.4-0.1c0.2-0.1,0.3-0.1,0.4-0.1c0.6-0.3,1.1-0.6,1.5-1.2c0.3-0.5,0.5-1.2,0.6-2.1
		L553.6,84.4L553.6,84.4z M558.6,89.1c-0.1,0.8,0.1,1.3,0.5,1.5c0.4,0.2,1.3,0.4,2.8,0.6c2.4,0.2,4.1,0.1,5.1-0.5
		c1.1-0.6,1.7-1.6,1.8-3.2c0.2-1.9-0.3-3.5-1.5-4.7c-1.2-1.2-2.9-2-5.1-2.2c-1-0.1-1.7,0-2.2,0.4c-0.4,0.3-0.7,1.1-0.8,2.3
		L558.6,89.1L558.6,89.1z"/>
	<path fill="#FFFFFF" d="M592.1,88.4c0.1-1.2,0.1-2.1,0-2.6c-0.1-0.5-0.4-0.9-0.8-1.3c-0.2-0.2-0.5-0.4-0.9-0.6
		c-0.3-0.2-0.8-0.3-1.5-0.5l0,0c-0.9-0.2-1.3-0.5-1.2-0.9c0-0.2,0.1-0.4,0.4-0.5c0.2-0.1,0.5-0.1,0.9-0.1c0.1,0,0.3,0,0.6,0.1
		c2.2,0.5,4.5,0.8,7,1.1c2.5,0.3,5.1,0.5,7.9,0.7c2.8,0.2,4.3,0.3,4.6,0.4c0.8,0.1,1.3,0.2,1.5,0.4c0.2,0.2,0.2,0.5,0.2,1.1
		l-0.1,0.8c-0.1,0.9-0.2,1.8-0.3,2.8c0,0.2,0,0.3,0,0.4c0,0.3-0.1,0.5-0.2,0.6c-0.1,0.1-0.3,0.1-0.6,0.1c-0.5-0.1-0.7-0.4-0.7-0.9
		c0-0.6-0.1-1-0.2-1.3c-0.4-0.8-1.1-1.4-2.1-1.9c-1.1-0.4-2.7-0.8-5-1c-1.3-0.2-2.3-0.1-2.8,0.2c-0.6,0.3-0.9,0.8-1,1.6l-0.6,5.7
		c-0.1,0.6,0,1,0.3,1.2c0.3,0.3,0.7,0.4,1.4,0.5l1.4,0.2c1,0.1,1.8,0.1,2.4,0c0.6-0.1,1.1-0.4,1.6-0.8c0.2-0.2,0.5-0.5,0.8-1
		c0.5-0.7,0.9-1,1.3-0.9c0.2,0,0.4,0.1,0.5,0.2c0.1,0.1,0.1,0.3,0.1,0.6c0,0,0,0.2-0.1,0.3c-0.2,0.8-0.3,1.6-0.4,2.4
		c-0.1,1.3-0.2,2.7-0.2,4.1c0,0.3,0,0.6,0,0.6c0,0.2-0.1,0.4-0.2,0.5c-0.1,0.1-0.3,0.1-0.6,0.1c-0.5-0.1-0.7-0.4-0.8-1.1
		c0-0.5-0.1-0.8-0.2-1.1c-0.3-0.7-0.7-1.3-1.3-1.6c-0.6-0.3-1.6-0.6-3-0.8l-1.7-0.2c-0.7-0.1-1.2,0-1.5,0.2
		c-0.3,0.2-0.5,0.8-0.6,1.6l-0.6,5.7c-0.2,1.5,0,2.5,0.4,2.9c0.4,0.4,1.3,0.7,2.8,0.9c1.5,0.2,2.9,0.1,4.4-0.1
		c1.5-0.2,2.7-0.6,3.7-1.1c0.7-0.4,1.3-0.8,1.8-1.4c0.5-0.6,0.9-0.9,1.2-0.9c0.2,0,0.3,0.1,0.4,0.3c0.1,0.2,0.1,0.3,0.1,0.5
		c-0.1,0.5-0.3,1.1-0.7,1.9c-0.4,0.8-0.9,1.4-1.5,1.9c-0.7,0.6-1.5,1.1-2.5,1.3c-1,0.2-2.2,0.3-3.5,0.1c-0.6-0.1-1.8-0.3-3.6-0.6
		c-1.8-0.3-3.3-0.6-4.6-0.7c-1.5-0.2-3-0.3-4.6-0.3c-1.6-0.1-2.4-0.1-2.4-0.1c-0.3,0-0.6-0.1-0.8-0.3c-0.2-0.1-0.2-0.3-0.2-0.5
		c0-0.2,0.1-0.4,0.3-0.6c0.2-0.1,0.5-0.3,1-0.4c0.1,0,0.2-0.1,0.4-0.1c0.2-0.1,0.3-0.1,0.5-0.1c0.7-0.3,1.2-0.6,1.5-1.2
		c0.3-0.5,0.6-1.2,0.7-2.1L592.1,88.4L592.1,88.4z"/>
	<path fill="#FFFFFF" d="M625.5,92.3c0.2-1.2,0.2-2.1,0.1-2.6c-0.1-0.5-0.4-1-0.8-1.4c-0.2-0.2-0.5-0.4-0.9-0.6
		c-0.3-0.2-0.8-0.3-1.5-0.5l0,0c-0.9-0.2-1.3-0.6-1.2-1c0-0.2,0.2-0.4,0.4-0.5c0.2-0.1,0.5-0.1,0.9-0.1c0.1,0,0.3,0,0.6,0.1
		c2.2,0.5,4.5,0.9,7,1.2c2.5,0.3,5.1,0.6,7.9,0.8c2.8,0.2,4.3,0.4,4.6,0.4c0.8,0.1,1.3,0.2,1.5,0.4c0.2,0.2,0.2,0.5,0.1,1.1
		l-0.1,0.8c-0.1,0.9-0.2,1.8-0.3,2.7c0,0.2,0,0.3,0,0.4c0,0.3-0.1,0.5-0.2,0.6c-0.1,0.1-0.3,0.1-0.6,0.1c-0.5-0.1-0.7-0.4-0.7-1
		c0-0.6,0-1-0.2-1.3c-0.3-0.8-1.1-1.5-2.1-1.9c-1.1-0.4-2.7-0.8-5-1.1c-1.3-0.2-2.3-0.1-2.8,0.1c-0.6,0.2-0.9,0.8-1,1.5l-0.7,5.7
		c-0.1,0.6,0,1,0.3,1.2c0.3,0.3,0.7,0.5,1.4,0.5l1.4,0.2c1,0.1,1.8,0.1,2.4,0c0.6-0.1,1.1-0.4,1.6-0.8c0.2-0.2,0.5-0.5,0.8-1
		c0.5-0.7,0.9-1,1.4-0.9c0.2,0,0.4,0.1,0.5,0.2c0.1,0.1,0.1,0.3,0.1,0.6c0,0,0,0.2-0.1,0.3c-0.2,0.8-0.3,1.6-0.4,2.4
		c-0.2,1.3-0.2,2.7-0.2,4.1c0,0.3,0,0.6,0,0.6c0,0.2-0.1,0.4-0.3,0.5c-0.1,0.1-0.3,0.1-0.6,0.1c-0.5-0.1-0.7-0.4-0.7-1.1
		c0-0.5-0.1-0.9-0.2-1.1c-0.2-0.8-0.7-1.3-1.3-1.7c-0.6-0.4-1.6-0.6-3-0.8l-1.7-0.2c-0.7-0.1-1.2,0-1.5,0.2
		c-0.3,0.2-0.5,0.8-0.6,1.6l-0.7,5.7c-0.2,1.5-0.1,2.5,0.3,2.9c0.4,0.4,1.3,0.7,2.8,0.9c1.5,0.2,2.9,0.2,4.4,0
		c1.5-0.2,2.7-0.6,3.7-1.1c0.7-0.3,1.3-0.8,1.8-1.4c0.5-0.6,1-0.9,1.2-0.8c0.2,0,0.3,0.1,0.4,0.3c0.1,0.2,0.1,0.3,0.1,0.5
		c-0.1,0.5-0.3,1.1-0.7,1.9c-0.4,0.8-0.9,1.4-1.5,1.9c-0.7,0.6-1.5,1.1-2.5,1.3c-1,0.2-2.2,0.2-3.5,0.1c-0.6-0.1-1.8-0.3-3.6-0.6
		c-1.8-0.3-3.3-0.6-4.5-0.7c-1.5-0.2-3-0.3-4.6-0.4c-1.6-0.1-2.4-0.1-2.4-0.1c-0.3,0-0.6-0.1-0.8-0.3c-0.2-0.1-0.2-0.3-0.2-0.5
		c0-0.2,0.1-0.4,0.3-0.5c0.2-0.1,0.5-0.3,1.1-0.4c0.1,0,0.2-0.1,0.4-0.1c0.2-0.1,0.3-0.1,0.5-0.1c0.7-0.2,1.2-0.6,1.5-1.1
		c0.4-0.5,0.6-1.2,0.7-2.1L625.5,92.3L625.5,92.3z"/>
	<path fill="#FFFFFF" d="M666.7,95.4c0.1-0.8,0-1.2-0.3-1.5c-0.3-0.2-1.1-0.4-2.4-0.6c-2.2-0.3-3.8-0.4-4.7-0.2
		c-0.9,0.2-1.6,0.6-2.1,1.3c-0.3,0.4-0.7,1-1,1.7c-0.4,0.8-0.8,1.1-1.4,1.1c-0.2,0-0.4-0.1-0.5-0.3c-0.1-0.1-0.1-0.4-0.1-0.6
		c0-0.1,0.1-0.3,0.2-0.7c0.5-1.4,0.9-2.7,1.2-4c0.2-0.7,0.3-1.1,0.5-1.2c0.2-0.1,0.5-0.2,1-0.1c0.2,0,1.1,0.2,2.7,0.5
		c1.6,0.3,3.1,0.6,4.5,0.8l10.3,1.4c1.5,0.2,3,0.4,4.8,0.6c1.7,0.2,2.7,0.3,3,0.3c0.7,0.1,1.2,0.2,1.3,0.4c0.2,0.2,0.2,0.5,0.2,0.9
		l-0.2,3.8l0,0.3c-0.1,0.4-0.1,0.6-0.2,0.7c-0.1,0.1-0.3,0.1-0.5,0c-0.5-0.1-0.8-0.4-0.9-1c-0.1-0.5-0.2-0.9-0.3-1.2
		c-0.3-0.7-0.8-1.2-1.6-1.6c-0.8-0.4-2.1-0.7-4.1-0.9l-0.4-0.1c-1.6-0.2-2.6-0.3-2.9-0.1c-0.3,0.2-0.6,0.6-0.7,1.4l-2.3,16.3
		c-0.1,1-0.1,1.8,0.2,2.4c0.3,0.6,0.8,1.1,1.7,1.6c0.2,0.1,0.7,0.3,1.2,0.4c0,0,0.1,0,0.1,0c0,0,0,0,0.1,0c0.9,0.3,1.4,0.7,1.3,1.1
		c0,0.3-0.2,0.4-0.4,0.5c-0.2,0.1-0.5,0.1-0.9,0.1c-0.2,0-1-0.2-2.4-0.5c-1.4-0.3-2.6-0.5-3.8-0.7c-1.2-0.2-2.6-0.3-4.2-0.4
		c-1.6-0.1-2.6-0.2-2.9-0.2c-0.4-0.1-0.7-0.2-0.9-0.3c-0.2-0.2-0.3-0.4-0.3-0.6c0.1-0.4,0.5-0.6,1.4-0.7l0,0c0.1,0,0.3,0,0.6-0.1
		c0.3,0,0.5-0.1,0.7-0.1c0.9-0.2,1.5-0.5,2-1c0.5-0.5,0.8-1.3,0.9-2.2L666.7,95.4L666.7,95.4z"/>
	<path fill="#FFFFFF" d="M362.9,98.3l-4.7,11.9h-39.9v-1.7c11.8-9.7,20.2-17.7,25-23.8c4.8-6.2,7.2-11.8,7.2-16.9
		c0-3.9-1.3-7.1-4-9.6c-2.7-2.5-5.8-3.8-9.5-3.8c-3.4,0-6.4,0.9-9,2.6c-2.7,1.8-4.6,4.3-5.9,7.7h-1.9c0.8-5.6,3-9.9,6.4-12.8
		c3.5-3,7.8-4.5,13-4.5c5.5,0,10.1,1.6,13.8,4.8c3.7,3.2,5.5,7,5.5,11.3c0,3.1-0.8,6.2-2.4,9.3c-2.5,4.9-6.5,10.1-12.1,15.5
		c-8.4,8.1-13.6,13.1-15.7,14.8h17.7c3.6,0,6.1-0.1,7.6-0.4c1.5-0.2,2.8-0.7,3.9-1.5c1.2-0.7,2.2-1.8,3.1-3.2H362.9L362.9,98.3z"/>
	<path fill="#FFFFFF" d="M373.3,79.8c0-7,1.2-13,3.5-18.1c2.3-5.1,5.5-8.8,9.3-11.3c3-2,6.1-2.9,9.3-2.9c5.2,0,9.9,2.4,14,7.2
		c5.2,5.9,7.8,14,7.8,24.2c0,7.1-1.1,13.2-3.4,18.2c-2.3,5-5.2,8.6-8.7,10.8c-3.5,2.2-6.9,3.4-10.2,3.4c-6.5,0-11.9-3.5-16.2-10.4
		C375.1,95,373.3,88,373.3,79.8L373.3,79.8z M383.1,80.9c0,8.5,1.2,15.4,3.5,20.7c1.9,4.5,4.7,6.8,8.5,6.8c1.8,0,3.7-0.7,5.6-2.2
		c1.9-1.5,3.4-3.9,4.4-7.4c1.5-5.2,2.3-12.5,2.3-22c0-7-0.8-12.9-2.4-17.6c-1.2-3.5-2.7-5.9-4.6-7.4c-1.4-1-3-1.5-5-1.5
		c-2.3,0-4.3,0.9-6,2.8c-2.4,2.5-4,6.5-4.9,11.8C383.6,70.4,383.1,75.7,383.1,80.9L383.1,80.9z"/>
</g>
</svg>
